<?xml version="1.0" encoding="iso-8859-1"?>
<!-- Generator: Adobe Illustrator 19.0.0, SVG Export Plug-In . SVG Version: 6.00 Build 0)  -->
<svg version="1.1" id="Capa_1" xmlns="http://www.w3.org/2000/svg" xmlns:xlink="http://www.w3.org/1999/xlink" x="0px" y="0px"
	 viewBox="0 0 512 512" style="enable-background:new 0 0 512 512;" xml:space="preserve">
<g>
	<path style="fill:#CB8252;" d="M433.081,308.701c-15.939-0.019-29.908,10.657-34.074,26.041l-0.088,0.441H113.081l-0.088-0.441
		c-4.166-15.385-18.136-26.061-34.074-26.041l-78.919,0V458.77c0.023,29.242,23.723,52.942,52.966,52.966h406.069
		c29.242-0.023,52.942-23.723,52.966-52.966V308.701L433.081,308.701z"/>
	<g>
		<path style="fill:#805333;" d="M167.724,441.115h176.552c9.751,0,17.655,7.905,17.655,17.655l0,0
			c0,9.751-7.905,17.655-17.655,17.655H167.724c-9.751,0-17.655-7.904-17.655-17.655l0,0
			C150.069,449.019,157.973,441.115,167.724,441.115z"/>
		<path style="fill:#805333;" d="M398.919,335.183l-12.27,44.579c-4.166,15.384-18.136,26.061-34.074,26.041H159.426
			c-15.939,0.019-29.908-10.657-34.074-26.041l-12.27-44.579H398.919z"/>
	</g>
	<circle style="fill:#46B29D;" cx="256" cy="176.817" r="176.552"/>
	<path style="fill:#ECF0F1;" d="M324.204,130.274l-60.82-74.336c-1.677-2.049-4.184-3.238-6.832-3.238s-5.156,1.188-6.832,3.238
		l-60.82,74.336c-2.16,2.64-2.606,6.288-1.145,9.37c1.461,3.082,4.566,5.047,7.977,5.047h25.51c4.875,0,8.828,3.952,8.828,8.828
		V294.76c0,4.875,3.952,8.828,8.828,8.828h35.31c4.875,0,8.828-3.952,8.828-8.828V153.519c0-4.875,3.952-8.828,8.828-8.828h25.51
		c3.411,0,6.516-1.965,7.977-5.047C326.809,136.562,326.364,132.914,324.204,130.274z"/>
</g>
<g>
</g>
<g>
</g>
<g>
</g>
<g>
</g>
<g>
</g>
<g>
</g>
<g>
</g>
<g>
</g>
<g>
</g>
<g>
</g>
<g>
</g>
<g>
</g>
<g>
</g>
<g>
</g>
<g>
</g>
</svg>
