<svg xmlns="http://www.w3.org/2000/svg" width="21" height="21" viewBox="0 0 21 21">
  <g id="icon-up" transform="translate(-525 -128)">
    <path id="Path" d="M0,4.424l0,0,.87.87v0h0L4.42,8.848,5.695,7.573,3.421,5.3h8.16V3.5H3.471L5.695,1.274,4.42,0,.922,3.5H.87V3.55L0,4.42Z" transform="translate(539.973 133.169) rotate(90)" fill="#363636"/>
    <path id="Exclusion_1" data-name="Exclusion 1" d="M10.5,21A10.5,10.5,0,0,1,3.075,3.075,10.5,10.5,0,1,1,10.5,21Zm0-19A8.5,8.5,0,1,0,19,10.5,8.51,8.51,0,0,0,10.5,2Z" transform="translate(525 128)" fill="#363636"/>
  </g>
</svg>
