<svg xmlns="http://www.w3.org/2000/svg" width="15.619" height="17.833" viewBox="0 0 15.619 17.833">
  <g id="icon-bin" transform="translate(-8.667 -7.977)">
    <g id="Group_1" data-name="Group 1" transform="translate(8.667 7.977)">
      <path id="Path_1" data-name="Path 1" d="M24.286,10.537H19.847V9.148H18.631V7.977H14.467V9.148H13.122v1.389H8.667v1.735h1.647V25.81H22.64V12.272h1.646ZM21.408,24.464H11.689V12.9h9.719ZM15.767,9.194H17.2v1.345H15.767Z" transform="translate(-8.667 -7.977)" fill="#eb5c52"/>
      <rect id="Rectangle_1" data-name="Rectangle 1" width="1.302" height="8.243" transform="translate(4.411 6.812)" fill="#eb5c52"/>
      <rect id="Rectangle_2" data-name="Rectangle 2" width="1.302" height="8.243" transform="translate(7.188 6.812)" fill="#eb5c52"/>
      <rect id="Rectangle_3" data-name="Rectangle 3" width="1.302" height="8.243" transform="translate(10.008 6.812)" fill="#eb5c52"/>
    </g>
  </g>
</svg>
