<svg xmlns="http://www.w3.org/2000/svg" width="20" height="25.5" viewBox="0 0 20 25.5">
  <g id="icon_regis_pass" transform="translate(-10.546 -6.239)">
    <rect id="Rectangle_201" data-name="Rectangle 201" width="18" height="12" transform="translate(11.546 18.739)" fill="none" stroke="#4d4d4d" stroke-miterlimit="10" stroke-width="2"/>
    <path id="Path_1645" data-name="Path 1645" d="M27.546,11.239s-.489-4-6.932-4-7.068,4-7.068,4v7.5h14v-7.5Z" fill="none" stroke="#4d4d4d" stroke-miterlimit="10" stroke-width="2"/>
  </g>
</svg>
