<svg xmlns="http://www.w3.org/2000/svg" width="40.235" height="41.27" viewBox="0 0 40.235 41.27">
  <g id="icon-structure" transform="translate(-789.005 -450.215)">
    <g id="icon_user_blue" transform="translate(449.866 1362.21)">
      <path id="Path_1388" data-name="Path 1388" d="M661.1,493.855a3.169,3.169,0,1,1,.926,2.245A3.175,3.175,0,0,1,661.1,493.855Z" transform="translate(-305.012 -1401.68)" fill="none" stroke="#0285f9" stroke-miterlimit="10" stroke-width="1.99"/>
      <path id="Path_1389" data-name="Path 1389" d="M668.846,507.825a7.6,7.6,0,0,0,.228-1.723,6.122,6.122,0,1,0-12.245,0,7.449,7.449,0,0,0,.228,1.7Z" transform="translate(-303.696 -1404.546)" fill="none" stroke="#0285f9" stroke-miterlimit="10" stroke-width="1.99"/>
    </g>
    <g id="Group_5" data-name="Group 5" transform="translate(-0.134 -79)">
      <g id="icon_user_blue-2" data-name="icon_user_blue" transform="translate(437 1466.21)">
        <path id="Path_1388-2" data-name="Path 1388" d="M661.1,493.855a3.169,3.169,0,1,1,.926,2.245A3.175,3.175,0,0,1,661.1,493.855Z" transform="translate(-305.012 -1401.68)" fill="none" stroke="#0285f9" stroke-miterlimit="10" stroke-width="1.99"/>
        <path id="Path_1389-2" data-name="Path 1389" d="M668.846,507.825a7.6,7.6,0,0,0,.228-1.723,6.122,6.122,0,1,0-12.245,0,7.449,7.449,0,0,0,.228,1.7Z" transform="translate(-303.696 -1404.546)" fill="none" stroke="#0285f9" stroke-miterlimit="10" stroke-width="1.99"/>
      </g>
      <g id="icon_user_blue-3" data-name="icon_user_blue" transform="translate(463 1466.21)">
        <path id="Path_1388-3" data-name="Path 1388" d="M661.1,493.855a3.169,3.169,0,1,1,.926,2.245A3.175,3.175,0,0,1,661.1,493.855Z" transform="translate(-305.012 -1401.68)" fill="none" stroke="#0285f9" stroke-miterlimit="10" stroke-width="1.99"/>
        <path id="Path_1389-3" data-name="Path 1389" d="M668.846,507.825a7.6,7.6,0,0,0,.228-1.723,6.122,6.122,0,1,0-12.245,0,7.449,7.449,0,0,0,.228,1.7Z" transform="translate(-303.696 -1404.546)" fill="none" stroke="#0285f9" stroke-miterlimit="10" stroke-width="1.99"/>
      </g>
    </g>
    <path id="Union_1" data-name="Union 1" d="M10.949,11.364,6.536,6.95,2.121,11.364A1,1,0,0,1,.707,9.95L5.542,5.114A1.009,1.009,0,0,1,5.536,5V1a1,1,0,0,1,2,0V5a1.007,1.007,0,0,1-.007.115L12.364,9.95a1,1,0,0,1-1.415,1.415Z" transform="translate(802.586 469)" fill="#0285f9"/>
  </g>
</svg>
