<svg xmlns="http://www.w3.org/2000/svg" width="16.876" height="14.299" viewBox="0 0 16.876 14.299">
  <path id="icon-check-grey" d="M14.074.65,6.5,9.633,2.454,5.941.526,7.869,6.5,13.49,16,2.577Z" transform="translate(0.192 0.088)" fill="#d7d7d7" stroke="#d7d7d7" stroke-width="1"/>
</svg>
