<svg xmlns="http://www.w3.org/2000/svg" width="63.981" height="41.196" viewBox="0 0 63.981 41.196">
  <g id="icon-userdata" transform="translate(-951.887 -527.376)">
    <path id="Path_903" data-name="Path 903" d="M859,37.27a2.971,2.971,0,1,1,.87,2.11A2.98,2.98,0,0,1,859,37.27Z" transform="translate(103.542 504.006)" fill="none" stroke="#39b54a" stroke-miterlimit="10" stroke-width="2"/>
    <path id="Path_904" data-name="Path 904" d="M867.242,48.26a7.175,7.175,0,0,0,.219-1.622,5.76,5.76,0,1,0-11.511,0,7.02,7.02,0,0,0,.219,1.6Z" transform="translate(103.813 503.442)" fill="none" stroke="#39b54a" stroke-miterlimit="10" stroke-width="2"/>
    <g id="Group_4" data-name="Group 4">
      <rect id="Rectangle_147" data-name="Rectangle 147" width="55.594" height="36.455" rx="7.79" transform="translate(952.887 528.376)" fill="none" stroke="#39b54a" stroke-miterlimit="10" stroke-width="2"/>
      <path id="Path_1014" data-name="Path 1014" d="M859.79,53.771a6.908,6.908,0,0,0,5.559,2.452h41.395a6.379,6.379,0,0,0,6.644-6.644V27.332a7.009,7.009,0,0,0-6.872-7.218" transform="translate(101.473 511.343)" fill="none" stroke="#39b54a" stroke-miterlimit="10" stroke-width="2"/>
    </g>
    <line id="Line_278" data-name="Line 278" x2="16.405" transform="translate(985.697 541.786)" fill="none" stroke="#39b54a" stroke-miterlimit="10" stroke-width="2"/>
    <line id="Line_279" data-name="Line 279" x2="22.784" transform="translate(979.317 546.343)" fill="none" stroke="#39b54a" stroke-miterlimit="10" stroke-width="2"/>
    <line id="Line_280" data-name="Line 280" x2="22.784" transform="translate(979.317 550.9)" fill="none" stroke="#39b54a" stroke-miterlimit="10" stroke-width="2"/>
  </g>
</svg>
